[
    [
        {
            "stellplatzId": 1,
            "bezeichnung": "öäü",
            "stadt": 1,
            "miete": 6,
            "serviceZeiten": "sdf",
            "zugangsZeiten": "sdf",
            "ausstattung": [
                1,
                3
            ],
            "lagerhalter": "a"
        },
        [
            {
                "bezeichnung": "3334",
                "beschreibung": "asdf",
                "monatlKosten": 4,
                "lagerhalter": "a",
                "serviceId": 1
            }
        ]
    ],
    [
        {
            "stellplatzId": 2,
            "bezeichnung": "öäü",
            "stadt": 1,
            "miete": 6,
            "serviceZeiten": "sdf",
            "zugangsZeiten": "sdf",
            "ausstattung": [
                1,
                3
            ],
            "lagerhalter": "a"
        },
        [
            {
                "bezeichnung": "3334",
                "beschreibung": "asdf",
                "monatlKosten": 4,
                "lagerhalter": "a",
                "serviceId": 1
            }
        ]
    ]
]